Started at Sun Dec 13 00:22:33 UTC 2020
Processing container-scan
Offering container-scan to Project Build Discarder
Processing jhu-final-project
Offering jhu-final-project to Project Build Discarder
Finished at Sun Dec 13 00:22:33 UTC 2020. 78ms
