Started at Sat Dec 12 23:42:47 UTC 2020
Processing container-scan
Offering container-scan to Project Build Discarder
Processing jhu-final-project
Offering jhu-final-project to Project Build Discarder
Finished at Sat Dec 12 23:42:47 UTC 2020. 142ms
